[
    {
        "content": "Kita wajib bersyukur kepada Tuhan Yang Maha Esa karena kita telah diberi tangan dan kaki, sehingga kita dapat dengan mudah mengambil barang-barang yang kita butuhkan atau bergerak menuju suatu tempat yang kita inginkan. Ketika kita bergerak menuju suatu tempat, tentu kita akan melintasi suatu lintasan dengan kecepatan tertentu dan memerlukan waktu tertentu pula. Tahukah kamu bagaimana hubungan antarketiganya? Pernahkah kamu berpikir bagaimana kaki dan tangan, maupun organ tubuhmu yang lain dapat bergerak? Agar mengetahuinya, ayo pelajari bab ini dengan penuh antusias",
        "page": 2
    },
    {
        "content": "Gerak Benda dan Makhluk Hidup di Lingkungan Sekitar",
        "page": 1
    },
    {
        "content": "Sistem Gerak Manusia, Rangka, ",
        "page": 23
    },
    {
        "content": "Sendi",
        "page": 29
    },
    {
        "content": "Gangguan dan Kelainan pada Sistem Gerak dan Upaya Mencegah serta Mengatasinya",
        "page": 39
    },
    {
        "content": "Upaya Menjaga Kesehatan Sistem Gerak pada Manusia",
        "page": 43
    },
    {
        "content": "Sistem Gerak pada Hewan",
        "page": 44
    },
    {
        "content": "Sistem Gerak pada Tumbuhan",
        "page": 49
    },
    {
        "content": "Bab 2 Usaha dan Pesawat Sederhana dalam Kehidupan Sehari-hari",
        "page": 75
    },
    {
        "content": "Pesawat Sederhana",
        "page": 80
    },
    {
        "content": "Bab 3 Struktur dan Fungsi Tumbuhan",
        "page": 105
    },
    {
        "content": "Struktur dan Fungsi Buah dan Biji",
        "page": 118
    },
    {
        "content": "Struktur dan Fungsi Jaringan Tumbuhan",
        "page": 119
    },
    {
        "content": "Teknologi yang Terinspirasi dari Struktur Jaringan Tumbuhan",
        "page": 136
    },
    {
        "content": "Panel Surya (Solar Cell)",
        "page": 136
    },
    {
        "content": "Sistem Pencernaan Manusia, Kebutuhan Energi, Nutrisi",
        "page": 155
    },
    {
        "content": "Struktur dan Fungsi Sistem Pencernaan Makanan pada Manusia",
        "page": 180
    },
    {
        "content": "Organ Pencernaan Tambahan",
        "page": 188
    },
    {
        "content": "Konstipasi, diare, kekurangan vitamin",
        "page": 196
    },
    {
        "content": "Zat Aditif dan Zat Adiktif, Pengental",
        "page": 209
    },

    {
        "content": "Gangguan atau Kelainan pada Sistem Peredaran Darah dan Upaya untuk Mencegah serta Menanggulanginya",
        "page": 272
    },
    {
        "content": "Sistem Peredaran Darah Manusia",
        "page": 253
    },
    {
        "content": "Jenis-jenis Zat Adiktif",
        "page": 227
    },
    {
        "content": "Hipertensi dan Hipotensi",
        "page": 277
    },
    {
        "content": "Anemia, varises",
        "page": 275
    },
    {
        "content": "PENGUNGKIT JENIS I Titik tumpu berada di antara kuasa beban. Hal ini terjadi ketika pemain bulutangkis menggunakan otot leher untuk menengadahkan kepalanya",
        "page": 92
    },
    {
        "content": "Sebuah mobil yang mula-mula diam bergerak dipercepat beraturan hingga kecepatannya menjadi 72 km/jam setelah bergerak selama 30 sekon. Percepatan yang dialami mobil tersebut adalah",
        "page": 10
    },
    {
        "content": "Kegiatan Sehari-hari dan Pesawat Sederhana yang Digunakan sebagai Alat Bantu",
        "page": 80
    },
    {
        "content": "Sendi peluru menghubungkan antara satu tulang yang mempunyai satu ujung bulat yang masuk ke ujung tulang lain yang berongga seperti mangkok. Sendi ini dapat membentuk gerakan sangat bebas. Contoh sendi peluru adalah sendi antara tulang",
        "page": 30
    }   
]