[
    {
        "question": "Bahan pewarna yang disarankan untuk dipakai dalam produk makanan dan minuman adalah ....",
        "option": [
            {
                "status" : true,    
                "text" : "pewarna buatan karena tidak akan menimbulkan penyakit apapun meski dipakai dalam jumlah banyak"   
            },
            {
                "status" : false,    
                "text" : "pewarna alami karena lebih mudah diperoleh dibandingkan pewarna buatan"
            },
            {
                "status" : false,    
                "text" : "pewarna alami karena tidak memiliki efek samping dalam penggunaan dengan skala besar"
            },
            {
                "status" : false,    
                "text" : "pewarna buatan karena tidak akan menimbulkan penyakit apapun meski dipakai dalam jumlah banyak"
            }
        ]
    },
    {
        "question": "Berikut ini yang tidak termasuk bahan pewarna alami adalah ....",
        "option": [
            {
                "status" : true,    
                "text" : "kunyit"   
            },
            {
                "status" : false,    
                "text" : "kakao"
            },
            {
                "status" : false,    
                "text" : "daun suji"
            },
            {
                "status" : false,    
                "text" : "tartrazine"
            }
        ]
    },
    {
        "question": "Pemanis buatan yang tidak mengandung kalori dianjurkan untuk dikonsumsi para penderita penyakit tertentu yang ingin menikmati rasa manis secara aman. Penyakit tersebut adalah ....",
        "option": [
            {
                "status" : true,    
                "text" : "kanker"   
            },
            {
                "status" : false,    
                "text" : "diabetes mellitus"
            },
            {
                "status" : false,    
                "text" : "diabetes insipidus"
            },
            {
                "status" : false,    
                "text" : "tekanan darah tinggi"
            }
        ]
    },
    {
        "question": "Pengawet digunakan dalam pembuatan bahan makanan, karena ....",
        "option": [
            {
                "status" : true,    
                "text" : "mempermudah dalam pengemasan untuk pendistribusian"   
            },
            {
                "status" : false,    
                "text" : "mencegah reaksi kimia tertentu pada bahan makanan"
            },
            {
                "status" : false,    
                "text" : "membantu proses penumbuhan berbagai mikroorganisme pada bahan makanan"
            },
            {
                "status" : false,    
                "text" : "mencegah makanan dikonsumsi dalam jangka waktu tertentu"
            }
        ]
    },
    {
        "question": "<em>Monosodium glutamat</em> (MSG) memiliki rasa yang khas dan dapat membuat makanan menjadi lebih sedap, namun penggunaan MSG harus dibatasi. Bahan campuran yang dapat digunakan untuk menggantikan MSG adalah ....",
        "option": [
            {
                "status" : true,    
                "text" : "gula dan asam"   
            },
            {
                "status" : false,    
                "text" : "garam dan asam"
            },
            {
                "status" : false,    
                "text" : "gula dan garam"
            },
            {
                "status" : false,    
                "text" : "garam dan serbuk lada"
            }
        ]
    },
    {
        "question": "Ikan adalah salah satu jenis makanan yang memiliki kandungan protein tinggi. Tetapi, ikan mudah sekali busuk jika tidak segera diolah. Berikut ini cara pengawetan ikan yang tepat adalah ....",
        "option": [
            {
                "status" : true,    
                "text" : "pengeringan, pembekuan, dan penambahan gula"   
            },
            {
                "status" : false,    
                "text" : "pendinginan, pengasapan, dan penambahan enzim"
            },
            {
                "status" : false,    
                "text" : "pendinginan, pengalengan, dan penambahan garam"
            },
            {
                "status" : false,    
                "text" : "pengalengan, pengeringan, dan penambahan enzim"
            }
        ]
    },
    {
        "question": "Beberapa zat adiktif dapat meningkatkan aktivitas sistem saraf pusat atau fungsi organ tubuh lainnya, seperti meningkatkan denyut jantung. Zat adiktif yang memiliki sifat tersebut termasuk dalam kelompok ....",
        "option": [
            {
                "status" : true,    
                "text" : "sedatif"   
            },
            {
                "status" : false,    
                "text" : "stimulan"
            },
            {
                "status" : false,    
                "text" : "hipnotik"
            },
            {
                "status" : false,    
                "text" : "halusinogen"
            }
        ]
    },
    {
        "question": "LSA (Lysergic acid amide) dan LSD (Lysergic acid diethylamide) merupakan obat psikotropika yang dapat memberikan efek khayal seperti mendengar atau melihat sesuatu yang sebenarnya tidak nyata atau disebut dengan ....",
        "option": [
            {
                "status" : true,    
                "text" : "rileks"   
            },
            {
                "status" : false,    
                "text" : "euforia"
            },
            {
                "status" : false,    
                "text" : "halusinasi"
            },
            {
                "status" : false,    
                "text" : "halusinogen"
            }
        ]
    },
    {
        "question": "Zat psiko-aktif yang secara alami terdapat dalam kopi adalah ....",
        "option": [
            {
                "status" : true,    
                "text" : "tar"   
            },
            {
                "status" : false,    
                "text" : "kafein"
            },
            {
                "status" : false,    
                "text" : "nikotin"
            },
            {
                "status" : false,    
                "text" : "kokain"
            }
        ]
    },
    {
        "question": "Jika kamu mendapati seseorang yang terkena psikotropika, yang dapat kamu sarankan kepada orang-orang di sekitarnya adalah ....",
        "option": [
            {
                "status" : true,    
                "text" : "meminta untuk mengurangi dosis penggunaan psikotropika sesuai keinginan dirinya sendiri"   
            },
            {
                "status" : false,    
                "text" : "meminta mengantarkannya ke rumah sakit tertentu untuk mendapat terapi penghentian penggunaan psikotropika"
            },
            {
                "status" : false,    
                "text" : "meminta untuk menggunakan bahan lain identik narkoba tapi tidak berbahaya, sehingga rasa sakit akibat kecanduan akan hilang"
            },
            {
                "status" : false,    
                "text" : "meminta membantu mengatasinya dengan menahan diri dari menggunakan bahan tersebut meskipun ada rasa sakit yang berlebihan"
            }
        ]
    }
]